﻿id,parent_id,name,created_at,updated_at
e5823c4d-5266-40b7-a579-89bb923129cd,,GENERAL,2016-08-04 01:00:37.006163,2016-08-04 01:00:37.006163
de64e937-fbc9-4008-b97e-29f560f158fe,e5823c4d-5266-40b7-a579-89bb923129cd,BUMBU,2016-08-04 01:00:37.080369,2016-08-04 01:00:37.080369
ec612272-83d9-41b4-bf30-34fe9f852de6,e5823c4d-5266-40b7-a579-89bb923129cd,KOPI,2016-08-04 01:00:37.482646,2016-08-04 01:00:37.482646
e83e1c3e-d3ea-49fc-aae3-ff5f9e9c1df8,e5823c4d-5266-40b7-a579-89bb923129cd,SEMBAKO,2016-08-04 01:00:37.609462,2016-08-04 01:00:37.609462
cc534263-52cd-4452-9b7c-380f284b8d37,e5823c4d-5266-40b7-a579-89bb923129cd,OBAT-OBATAN,2016-08-04 01:00:37.652697,2016-08-04 01:00:37.652697
9fad9cdd-47f4-4874-b3df-8c4f7d0cb102,e5823c4d-5266-40b7-a579-89bb923129cd,LAIN-LAIN,2016-08-04 01:00:37.675885,2016-08-04 01:00:37.675885
d35fa6de-50b4-4df0-a621-f835ecbc5b16,e5823c4d-5266-40b7-a579-89bb923129cd,MINUMAN,2016-08-04 01:00:37.760152,2016-08-04 01:00:37.760152
e923f85d-ddf0-448b-8ee4-5d9dbf0cdbc5,e5823c4d-5266-40b7-a579-89bb923129cd,SABUN,2016-08-04 01:00:38.447516,2016-08-04 01:00:38.447516
40445f9f-55a5-437a-94d7-ab2eabba599a,e5823c4d-5266-40b7-a579-89bb923129cd,SUSU,2016-08-04 01:00:38.851454,2016-08-04 01:00:38.851454
72c25b64-0e05-4ca8-9dd6-a4c86268e9e4,e5823c4d-5266-40b7-a579-89bb923129cd,SNACK&PERMEN,2016-08-04 01:00:38.894447,2016-08-04 01:00:38.894447
a3698b04-a849-47ba-90e3-607eb9de006e,e5823c4d-5266-40b7-a579-89bb923129cd,MIE,2016-08-04 01:00:39.011318,2016-08-04 01:00:39.011318
1fe40170-7598-4221-82fe-1e58853ffdca,e5823c4d-5266-40b7-a579-89bb923129cd,DUNIA PLASTI,2016-08-04 01:00:39.351157,2016-08-04 01:00:39.351157
3c824de0-cb89-44b1-853c-e59d9f30be7b,e5823c4d-5266-40b7-a579-89bb923129cd,ROKOK,2016-08-04 01:00:39.860615,2016-08-04 01:00:39.860615
31477c48-9bb1-4749-b605-5f42e53b5bbd,e5823c4d-5266-40b7-a579-89bb923129cd,OBAT-OBATA,2016-08-04 01:00:44.950819,2016-08-04 01:00:44.950819
